One service 2017-04-18_10:02:29.json data failed                                    to be loaded, skipping!
One service 2017-04-18_10:02:29.json data failed                                    to be loaded, skipping!
One service 2017-04-18_10:02:29.json data failed                                    to be loaded, skipping!
One service 2017-04-18_10:02:29.json data failed                                    to be loaded, skipping!
One service 2017-04-18_15:50:05.json data failed                                    to be loaded, skipping!
One service 2017-04-18_15:50:05.json data failed                                    to be loaded, skipping!
One service 2017-04-18_15:50:05.json data failed                                    to be loaded, skipping!
One service 2017-04-18_15:50:05.json data failed                                    to be loaded, skipping!
One service 2017-04-18_15:50:05.json data failed                                    to be loaded, skipping!
One service 2017-04-18_15:50:05.json data failed                                    to be loaded, skipping!
One service 2017-04-18_15:50:05.json data failed                                    to be loaded, skipping!
One service 2017-04-18_15:50:05.json data failed                                    to be loaded, skipping!
One service 2017-04-18_15:50:05.json data failed                                    to be loaded, skipping!
One service 2017-04-18_15:50:05.json data failed                                    to be loaded, skipping!
One service 2017-04-18_15:51:06.json data failed                                    to be loaded, skipping!
One service 2017-04-18_15:51:06.json data failed                                    to be loaded, skipping!
One service 2017-04-18_15:51:06.json data failed                                    to be loaded, skipping!
One service 2017-04-18_15:51:06.json data failed                                    to be loaded, skipping!
One service 2017-04-18_15:51:06.json data failed                                    to be loaded, skipping!
One service 2017-04-18_15:51:06.json data failed                                    to be loaded, skipping!
One service 2017-04-18_15:51:06.json data failed                                    to be loaded, skipping!
One service 2017-04-18_15:51:06.json data failed                                    to be loaded, skipping!
One service 2017-04-18_15:52:08.json data failed                                    to be loaded, skipping!
One service 2017-04-18_15:52:08.json data failed                                    to be loaded, skipping!
One service 2017-04-18_15:52:08.json data failed                                    to be loaded, skipping!
One service 2017-04-18_15:52:08.json data failed                                    to be loaded, skipping!
One service 2017-04-18_15:52:08.json data failed                                    to be loaded, skipping!
One service 2017-04-18_15:52:08.json data failed                                    to be loaded, skipping!
One service 2017-04-18_15:52:08.json data failed                                    to be loaded, skipping!
One service 2017-04-18_15:52:08.json data failed                                    to be loaded, skipping!
One service 2017-04-18_15:53:09.json data failed                                    to be loaded, skipping!
One service 2017-04-18_15:53:09.json data failed                                    to be loaded, skipping!
One service 2017-04-18_15:53:09.json data failed                                    to be loaded, skipping!
One service 2017-04-18_15:53:09.json data failed                                    to be loaded, skipping!
One service 2017-04-18_15:53:09.json data failed                                    to be loaded, skipping!
One service 2017-04-18_15:53:09.json data failed                                    to be loaded, skipping!
One service 2017-04-18_15:53:09.json data failed                                    to be loaded, skipping!
One service 2017-04-18_15:53:09.json data failed                                    to be loaded, skipping!
One service 2017-04-18_15:54:11.json data failed                                    to be loaded, skipping!
One service 2017-04-18_15:54:11.json data failed                                    to be loaded, skipping!
One service 2017-04-18_15:54:11.json data failed                                    to be loaded, skipping!
One service 2017-04-18_15:54:11.json data failed                                    to be loaded, skipping!
One service 2017-04-18_15:54:11.json data failed                                    to be loaded, skipping!
One service 2017-04-18_15:54:11.json data failed                                    to be loaded, skipping!
One service 2017-04-18_15:54:11.json data failed                                    to be loaded, skipping!
One service 2017-04-18_15:54:11.json data failed                                    to be loaded, skipping!
One service 2017-04-18_15:55:12.json data failed                                    to be loaded, skipping!
One service 2017-04-18_15:55:12.json data failed                                    to be loaded, skipping!
One service 2017-04-18_15:55:12.json data failed                                    to be loaded, skipping!
One service 2017-04-18_15:55:12.json data failed                                    to be loaded, skipping!
One service 2017-04-18_15:55:12.json data failed                                    to be loaded, skipping!
One service 2017-04-18_15:55:12.json data failed                                    to be loaded, skipping!
One service 2017-04-18_15:55:12.json data failed                                    to be loaded, skipping!
One service 2017-04-18_15:55:12.json data failed                                    to be loaded, skipping!
One service 2017-04-18_15:56:14.json data failed                                    to be loaded, skipping!
One service 2017-04-18_15:56:14.json data failed                                    to be loaded, skipping!
One service 2017-04-18_15:56:14.json data failed                                    to be loaded, skipping!
One service 2017-04-18_15:57:15.json data failed                                    to be loaded, skipping!
One service 2017-04-18_15:57:15.json data failed                                    to be loaded, skipping!
One service 2017-04-18_15:57:15.json data failed                                    to be loaded, skipping!
One service 2017-04-18_15:58:17.json data failed                                    to be loaded, skipping!
One service 2017-04-18_17:13:08.json data failed                                    to be loaded, skipping!
One service 2017-04-18_21:25:08.json data failed                                    to be loaded, skipping!
One service 2017-04-19_00:14:08.json data failed                                    to be loaded, skipping!
One service 2017-04-19_00:24:08.json data failed                                    to be loaded, skipping!
One service 2017-04-19_00:44:08.json data failed                                    to be loaded, skipping!
One service 2017-04-19_01:14:08.json data failed                                    to be loaded, skipping!
One service 2017-04-19_01:24:08.json data failed                                    to be loaded, skipping!
One service 2017-04-19_02:24:08.json data failed                                    to be loaded, skipping!



One service 2017-04-19_09:54:08.json data failed                                    to be loaded, skipping!
One service 2017-04-19_12:59:39.json data failed                                    to be loaded, skipping!
One service 2017-04-19_12:59:39.json data failed                                    to be loaded, skipping!
One service 2017-04-19_12:59:39.json data failed                                    to be loaded, skipping!
One service 2017-04-19_12:59:39.json data failed                                    to be loaded, skipping!
One service 2017-04-19_12:59:39.json data failed                                    to be loaded, skipping!
One service 2017-04-19_12:59:39.json data failed                                    to be loaded, skipping!
One service 2017-04-19_12:59:39.json data failed                                    to be loaded, skipping!
One service 2017-04-19_12:59:39.json data failed                                    to be loaded, skipping!
One service 2017-04-19_12:59:39.json data failed                                    to be loaded, skipping!
One service 2017-04-19_12:59:39.json data failed                                    to be loaded, skipping!
One service 2017-04-19_12:59:39.json data failed                                    to be loaded, skipping!
One service 2017-04-19_12:59:39.json data failed                                    to be loaded, skipping!
One service 2017-04-19_12:59:39.json data failed                                    to be loaded, skipping!
One service 2017-04-19_12:59:39.json data failed                                    to be loaded, skipping!
One service 2017-04-19_12:59:39.json data failed                                    to be loaded, skipping!
One service 2017-04-19_12:59:39.json data failed                                    to be loaded, skipping!
One service 2017-04-19_12:59:39.json data failed                                    to be loaded, skipping!
One service 2017-04-19_12:59:39.json data failed                                    to be loaded, skipping!
One service 2017-04-19_12:59:39.json data failed                                    to be loaded, skipping!
One service 2017-04-19_12:59:39.json data failed                                    to be loaded, skipping!
One service 2017-04-19_12:59:39.json data failed                                    to be loaded, skipping!
One service 2017-04-19_12:59:39.json data failed                                    to be loaded, skipping!
One service 2017-04-19_12:59:39.json data failed                                    to be loaded, skipping!
One service 2017-04-19_12:59:39.json data failed                                    to be loaded, skipping!
One service 2017-04-19_12:59:39.json data failed                                    to be loaded, skipping!
One service 2017-04-19_12:59:39.json data failed                                    to be loaded, skipping!
One service 2017-04-19_12:59:39.json data failed                                    to be loaded, skipping!

