AIC: 109940.967535
(1, 1, 7)
=================================
                                     ARIMA Model Results                                      
==============================================================================================
Dep. Variable:     D.Incoming network traffic on eth0   No. Observations:                 3023
Model:                                 ARIMA(1, 1, 7)   Log Likelihood              -54961.484
Method:                                           mle   S.D. of innovations       19025735.836
Date:                                Wed, 07 Jun 2017   AIC                         109940.968
Time:                                        19:56:50   BIC                         109995.094
Sample:                                    05-25-2017   HQIC                        109960.429
                                         - 05-29-2017                                         
============================================================================================================
                                               coef    std err          z      P>|z|      [0.025      0.975]
------------------------------------------------------------------------------------------------------------
ar.L1.D.Incoming network traffic on eth0     0.9786      0.008    115.536      0.000       0.962       0.995
ma.L1.D.Incoming network traffic on eth0    -1.4930        nan        nan        nan         nan         nan
ma.L2.D.Incoming network traffic on eth0     0.2621        nan        nan        nan         nan         nan
ma.L3.D.Incoming network traffic on eth0     0.0976      0.019      5.163      0.000       0.061       0.135
ma.L4.D.Incoming network traffic on eth0     0.0928      0.032      2.868      0.004       0.029       0.156
ma.L5.D.Incoming network traffic on eth0     0.0062      0.032      0.191      0.848      -0.057       0.070
ma.L6.D.Incoming network traffic on eth0     0.0464      0.032      1.430      0.153      -0.017       0.110
ma.L7.D.Incoming network traffic on eth0    -0.0121      0.019     -0.654      0.513      -0.048       0.024
                                    Roots                                    
=============================================================================
                 Real           Imaginary           Modulus         Frequency
-----------------------------------------------------------------------------
AR.1            1.0219           +0.0000j            1.0219            0.0000
MA.1            1.0002           -0.0000j            1.0002           -0.0000
MA.2            1.0478           -0.0000j            1.0478           -0.0000
MA.3           -1.6246           -1.1464j            1.9884           -0.4022
MA.4           -1.6246           +1.1464j            1.9884            0.4022
MA.5            0.3038           -2.0999j            2.1217           -0.2271
MA.6            0.3038           +2.0999j            2.1217            0.2271
MA.7            4.4308           -0.0000j            4.4308           -0.0000
-----------------------------------------------------------------------------