\relax 
\providecommand\zref@newlabel[2]{}
\select@language{english}
\@writefile{toc}{\select@language{english}}
\@writefile{lof}{\select@language{english}}
\@writefile{lot}{\select@language{english}}
\citation{intlive}
\citation{firstweb}
\citation{seose}
\citation{gutage}
\@writefile{toc}{\contentsline {chapter}{\numberline {1}Introduction}{1}}
\@writefile{lof}{\addvspace {10\p@ }}
\@writefile{lot}{\addvspace {10\p@ }}
\@writefile{lof}{\contentsline {figure}{\numberline {1.1}{\ignorespaces Number of the Internet users \cite  {intlive}}}{1}}
\newlabel{internet_users}{{1.1}{1}}
\citation{zabbix,icinga,nagios}
\citation{olups2016zabbix}
\newlabel{questions}{{1}{2}}
\@writefile{toc}{\contentsline {chapter}{\numberline {2}Today's monitoring}{3}}
\@writefile{lof}{\addvspace {10\p@ }}
\@writefile{lot}{\addvspace {10\p@ }}
\newlabel{todays}{{2}{3}}
\@writefile{toc}{\contentsline {chapter}{\numberline {3}Predicting the future}{4}}
\@writefile{lof}{\addvspace {10\p@ }}
\@writefile{lot}{\addvspace {10\p@ }}
\newlabel{predicts}{{3}{4}}
\bibstyle{iso690}
\bibdata{mybibliographyfile}
\@writefile{toc}{\contentsline {chapter}{\numberline {4}Root-cause analysis}{5}}
\@writefile{lof}{\addvspace {10\p@ }}
\@writefile{lot}{\addvspace {10\p@ }}
\newlabel{root}{{4}{5}}
\bibcite{intlive}{1}
\bibcite{firstweb}{2}
\bibcite{seose}{3}
\bibcite{gutage}{4}
\bibcite{zabbix}{5}
\bibcite{icinga}{6}
\bibcite{nagios}{7}
\bibcite{olups2016zabbix}{8}
