\begin{thebibliography}{1}
\providecommand{\biburl}[1]{\url{#1}}
\providecommand{\urlprefix}{Available from: }
\expandafter\ifx\csname urlstyle\endcsname\relax
  \providecommand{\doi}[1]{doi:\discretionary{}{}{}#1}\else
  \providecommand{\doi}{doi:\discretionary{}{}{}\begingroup
  \urlstyle{rm}\Url}\fi
\providecommand{\eprint}[2][]{\biburl{#2}}

\bibitem{intlive}
Stats, I.~L. Internet Users. 2017.
\urlprefix\biburl{http://www.internetlivestats.com/internet-users/}

\bibitem{firstweb}
Berners-Lee, T. The first website. 1990.
\urlprefix\biburl{http://info.cern.ch/hypertext/WWW/TheProject.html}

\bibitem{seose}
Vidim, J. Co prozradil Seznam.cz na SEO restartu 2016. 2016.
\urlprefix\biburl{https://www.evisions.cz/blog-2016-06-13-co-prozradil-seznam-cz-na-seo-restartu-2016/}

\bibitem{gutage}
Kasík, P. Výpadek Googlu šokoval Česko. Nebyl to útok hackerů, ale chyba
  při údržbě. 2016.
\urlprefix\biburl{http://technet.idnes.cz/google-vypadek-priciny-dopady-dkv-/sw_internet.aspx?c=A161123_114509_sw_internet_vse}

\bibitem{zabbix}
{Zabbix LLC}. Zabbix -- The Enterprise-class Monitoring Solution for Everyone.
\urlprefix\biburl{http://www.zabbix.com/}

\bibitem{icinga}
{The Icinga Project}. Icinga2.
\urlprefix\biburl{https://www.icinga.com/}

\bibitem{nagios}
{Nagios}. The Industry Standard In IT Infrastructure Monitoring.
\urlprefix\biburl{https://www.nagios.org/}

\bibitem{olups2016zabbix}
Olups, R. \emph{Zabbix Network Monitoring}. Packt Publishing, 2016, ISBN
  9781782161295.
\urlprefix\biburl{https://books.google.cz/books?id=xgjVDQAAQBAJ}

\end{thebibliography}
