\relax 
\providecommand\hyper@newdestlabel[2]{}
\providecommand*{\memsetcounter}[2]{}
\catcode `"\active 
\catcode `-\active 
\providecommand\HyperFirstAtBeginDocument{\AtBeginDocument}
\HyperFirstAtBeginDocument{\ifx\hyper@anchor\@undefined
\global\let\oldcontentsline\contentsline
\gdef\contentsline#1#2#3#4{\oldcontentsline{#1}{#2}{#3}}
\global\let\oldnewlabel\newlabel
\gdef\newlabel#1#2{\newlabelxx{#1}#2}
\gdef\newlabelxx#1#2#3#4#5#6{\oldnewlabel{#1}{{#2}{#3}}}
\AtEndDocument{\ifx\hyper@anchor\@undefined
\let\contentsline\oldcontentsline
\let\newlabel\oldnewlabel
\fi}
\fi}
\global\let\hyper@last\relax 
\gdef\HyperFirstAtBeginDocument#1{#1}
\providecommand\HyField@AuxAddToFields[1]{}
\providecommand\HyField@AuxAddToCoFields[2]{}
\select@language{czech}
\@writefile{toc}{\select@language{czech}}
\@writefile{lof}{\select@language{czech}}
\@writefile{lot}{\select@language{czech}}
\select@language{UKenglish}
\@writefile{toc}{\select@language{UKenglish}}
\@writefile{lof}{\select@language{UKenglish}}
\@writefile{lot}{\select@language{UKenglish}}
\select@language{UKenglish}
\@writefile{toc}{\select@language{UKenglish}}
\@writefile{lof}{\select@language{UKenglish}}
\@writefile{lot}{\select@language{UKenglish}}
\select@language{UKenglish}
\@writefile{toc}{\select@language{UKenglish}}
\@writefile{lof}{\select@language{UKenglish}}
\@writefile{lot}{\select@language{UKenglish}}
\@writefile{toc}{\contentsline {subsection}{Citation of this thesis}{vi}{section*.1}}
\@writefile{toc}{\contentsline {chapter}{Contents}{ix}{section*.5}}
\citation{intlive}
\citation{ligus2012effective}
\citation{timescaledb}
\citation{intlive}
\citation{intlive}
\citation{firstweb}
\citation{seose}
\citation{gutage}
\@writefile{lof}{\addvspace {10pt}}
\@writefile{lot}{\addvspace {10pt}}
\@writefile{toc}{\contentsline {chapter}{Introduction}{1}{chapter*.6}}
\newlabel{intro}{{\M@TitleReference {}{Introduction}}{1}{Introduction}{chapter*.6}{}}
\newlabel{questions}{{\M@TitleReference {}{Introduction}}{1}{Introduction}{chapter*.6}{}}
\@writefile{lof}{\contentsline {figure}{\numberline {0.1}{\ignorespaces Number of internet users \cite  {intlive}\relax }}{1}{figure.caption.7}}
\providecommand*\caption@xref[2]{\@setref\relax\@undefined{#1}}
\newlabel{internet_users}{{\M@TitleReference {0.1}{Number of internet users \cite  {intlive}\relax }}{1}{Number of internet users \cite {intlive}\relax }{figure.caption.7}{}}
\citation{zabbixsoft}
\citation{icinga}
\citation{nagios}
\citation{olups2016zabbix}
\citation{davis2016effective}
\citation{ligus2012effective}
\citation{gibson2014managing}
\citation{ligus2012effective}
\@writefile{lof}{\addvspace {10pt}}
\@writefile{lot}{\addvspace {10pt}}
\@writefile{toc}{\contentsline {chapter}{\chapternumberline {1}Today's monitoring}{3}{chapter.1}}
\newlabel{todays}{{\M@TitleReference {1}{Today's monitoring}}{3}{Today's monitoring}{chapter.1}{}}
\citation{ligus2012effective}
\citation{ligus2012effective}
\@writefile{lof}{\contentsline {figure}{\numberline {1.1}{\ignorespaces Monitoring coverage of system stack \cite  {ligus2012effective}\relax }}{4}{figure.caption.8}}
\newlabel{StackOfIs}{{\M@TitleReference {1.1}{Monitoring coverage of system stack \cite  {ligus2012effective}\relax }}{4}{Monitoring coverage of system stack \cite {ligus2012effective}\relax }{figure.caption.8}{}}
\@writefile{toc}{\contentsline {section}{\numberline {1.1}Case study}{4}{section.1.1}}
\newlabel{casestudy}{{\M@TitleReference {1.1}{Case study}}{4}{Case study}{section.1.1}{}}
\@writefile{toc}{\contentsline {subsection}{\numberline {1.1.1}Focus of the study}{4}{subsection.1.1.1}}
\citation{zabbixsoft}
\citation{opsgenie}
\@writefile{toc}{\contentsline {subsection}{\numberline {1.1.2}Methods}{5}{subsection.1.1.2}}
\@writefile{toc}{\contentsline {subsubsection}{\numberline {1.1.2.1}Resources}{5}{subsubsection.1.1.2.1}}
\citation{pingdom}
\citation{statusdroid}
\citation{rabbit}
\@writefile{toc}{\contentsline {subsubsection}{\numberline {1.1.2.2}Software}{6}{subsubsection.1.1.2.2}}
\@writefile{toc}{\contentsline {subsubsection}{\numberline {1.1.2.3}Experience}{6}{subsubsection.1.1.2.3}}
\citation{opsgenie}
\@writefile{lof}{\contentsline {figure}{\numberline {1.2}{\ignorespaces Monitoring operations based on part of the system stack\relax }}{7}{figure.caption.9}}
\newlabel{stackReactions}{{\M@TitleReference {1.2}{Monitoring operations based on part of the system stack\relax }}{7}{Monitoring operations based on part of the system stack\relax }{figure.caption.9}{}}
\@writefile{toc}{\contentsline {subsection}{\numberline {1.1.3}Discussion}{7}{subsection.1.1.3}}
\citation{2009root}
\citation{vitrage}
\citation{dynatrace}
\citation{sauce}
\@writefile{toc}{\contentsline {subsection}{\numberline {1.1.4}Conclusion}{8}{subsection.1.1.4}}
\@writefile{toc}{\contentsline {section}{\numberline {1.2}Existing \texttt  {RCA} tools}{8}{section.1.2}}
\newlabel{vitrage}{{\M@TitleReference {1.2}{Existing \texttt  {RCA} tools}}{8}{Existing \texttt {RCA} tools}{section.1.2}{}}
\citation{vitrage}
\citation{vitrage}
\citation{bstns}
\@writefile{toc}{\contentsline {subsection}{\numberline {1.2.1}\texttt  {RCA} \emph  {OpenStack Vitrage}}{9}{subsection.1.2.1}}
\@writefile{toc}{\contentsline {subsubsection}{\numberline {1.2.1.1}Description}{9}{subsubsection.1.2.1.1}}
\@writefile{toc}{\contentsline {subsubsection}{\numberline {1.2.1.2}Drawbacks}{9}{subsubsection.1.2.1.2}}
\@writefile{lof}{\contentsline {figure}{\numberline {1.3}{\ignorespaces Vitrage Architecture\relax }}{10}{figure.caption.10}}
\newlabel{vitrageStack}{{\M@TitleReference {1.3}{Vitrage Architecture\relax }}{10}{Vitrage Architecture\relax }{figure.caption.10}{}}
\citation{agrsv}
\citation{bstns}
\@writefile{toc}{\contentsline {subsection}{\numberline {1.2.2}\texttt  {RCA} \emph  {Dynatrace}}{12}{subsection.1.2.2}}
\@writefile{toc}{\contentsline {subsubsection}{\numberline {1.2.2.1}Description}{12}{subsubsection.1.2.2.1}}
\@writefile{lof}{\contentsline {figure}{\numberline {1.4}{\ignorespaces Dynamic entity diagram of \emph  {Dynatrace}\relax }}{13}{figure.caption.11}}
\newlabel{entity_dyna}{{\M@TitleReference {1.4}{Dynamic entity diagram of \emph  {Dynatrace}\relax }}{13}{Dynamic entity diagram of \emph {Dynatrace}\relax }{figure.caption.11}{}}
\@writefile{lof}{\contentsline {figure}{\numberline {1.5}{\ignorespaces \emph  {Dynatrace} root cause\relax }}{13}{figure.caption.12}}
\newlabel{rca_dyna}{{\M@TitleReference {1.5}{\emph  {Dynatrace} root cause\relax }}{13}{\emph {Dynatrace} root cause\relax }{figure.caption.12}{}}
\@writefile{toc}{\contentsline {subsubsection}{\numberline {1.2.2.2}Drawbacks}{14}{subsubsection.1.2.2.2}}
\@writefile{toc}{\contentsline {subsection}{\numberline {1.2.3}Comparison}{14}{subsection.1.2.3}}
\@writefile{lot}{\contentsline {table}{\numberline {1.1}{\ignorespaces Comparision of different root cause analysis implementation\relax }}{16}{table.caption.13}}
\newlabel{roccompo}{{\M@TitleReference {1.1}{Comparision of different root cause analysis implementation\relax }}{16}{Comparision of different root cause analysis implementation\relax }{table.caption.13}{}}
\@writefile{lof}{\addvspace {10pt}}
\@writefile{lot}{\addvspace {10pt}}
\@writefile{toc}{\contentsline {chapter}{\chapternumberline {2}Application design}{17}{chapter.2}}
\newlabel{RF1}{19}
\@writefile{lof}{\contentsline {figure}{\numberline {2.1}{\ignorespaces Components diagram\relax }}{19}{figure.caption.15}}
\newlabel{componsUML}{{\M@TitleReference {2.1}{Components diagram\relax }}{19}{Components diagram\relax }{figure.caption.15}{}}
\citation{ligus2012effective}
\@writefile{toc}{\contentsline {section}{\numberline {2.1}Prototype}{21}{section.2.1}}
\newlabel{RF2}{22}
\@writefile{lof}{\contentsline {figure}{\numberline {2.2}{\ignorespaces Mock-up of application frontend\relax }}{22}{figure.caption.17}}
\newlabel{mockup}{{\M@TitleReference {2.2}{Mock-up of application frontend\relax }}{22}{Mock-up of application frontend\relax }{figure.caption.17}{}}
\citation{zabbixsoft}
\@writefile{lof}{\addvspace {10pt}}
\@writefile{lot}{\addvspace {10pt}}
\@writefile{toc}{\contentsline {chapter}{\chapternumberline {3}Predicting the future}{25}{chapter.3}}
\newlabel{predicts}{{\M@TitleReference {3}{Predicting the future}}{25}{Predicting the future}{chapter.3}{}}
\citation{apscheduler}
\@writefile{toc}{\contentsline {section}{\numberline {3.1}Collecting data}{26}{section.3.1}}
\@writefile{lof}{\contentsline {figure}{\numberline {3.1}{\ignorespaces Data collection infrastructure\relax }}{27}{figure.caption.18}}
\newlabel{data_collection}{{\M@TitleReference {3.1}{Data collection infrastructure\relax }}{27}{Data collection infrastructure\relax }{figure.caption.18}{}}
\@writefile{lof}{\contentsline {figure}{\numberline {3.2}{\ignorespaces Inner architecture of collector\relax }}{27}{figure.caption.19}}
\newlabel{data_collector}{{\M@TitleReference {3.2}{Inner architecture of collector\relax }}{27}{Inner architecture of collector\relax }{figure.caption.19}{}}
\citation{timescaledb}
\citation{timescaledb}
\citation{timescaledb}
\citation{ldodp}
\@writefile{lof}{\contentsline {figure}{\numberline {3.3}{\ignorespaces \texttt  {TimescaleDB} benchmark on 16\tmspace  +\thinmuskip {.1667em}GB of input data \cite  {timescaledb}\relax }}{28}{figure.caption.20}}
\newlabel{bench}{{\M@TitleReference {3.3}{\texttt  {TimescaleDB} benchmark on 16\tmspace  +\thinmuskip {.1667em}GB of input data \cite  {timescaledb}\relax }}{28}{\texttt {TimescaleDB} benchmark on 16\,GB of input data \cite {timescaledb}\relax }{figure.caption.20}{}}
\citation{box}
\@writefile{lof}{\contentsline {figure}{\numberline {3.4}{\ignorespaces Incoming network traffic of ethernet device of message queue server in bits per second\relax }}{29}{figure.caption.21}}
\newlabel{ethload}{{\M@TitleReference {3.4}{Incoming network traffic of ethernet device of message queue server in bits per second\relax }}{29}{Incoming network traffic of ethernet device of message queue server in bits per second\relax }{figure.caption.21}{}}
\citation{dftest}
\@writefile{toc}{\contentsline {section}{\numberline {3.2}ARIMA}{30}{section.3.2}}
\@writefile{toc}{\contentsline {subsection}{\numberline {3.2.1}AR}{30}{subsection.3.2.1}}
\@writefile{toc}{\contentsline {subsection}{\numberline {3.2.2}MA}{30}{subsection.3.2.2}}
\@writefile{toc}{\contentsline {subsection}{\numberline {3.2.3}Differencing}{30}{subsection.3.2.3}}
\citation{qplot}
\citation{AIC}
\@writefile{toc}{\contentsline {subsection}{\numberline {3.2.4}Deciding the parameters}{31}{subsection.3.2.4}}
\citation{MSE}
\@writefile{lof}{\contentsline {figure}{\numberline {3.5}{\ignorespaces Input data statistics\relax }}{32}{figure.caption.22}}
\newlabel{inp_stats}{{\M@TitleReference {3.5}{Input data statistics\relax }}{32}{Input data statistics\relax }{figure.caption.22}{}}
\@writefile{toc}{\contentsline {subsection}{\numberline {3.2.5}Testing the model}{32}{subsection.3.2.5}}
\@writefile{lof}{\contentsline {figure}{\numberline {3.6}{\ignorespaces Real data in comparison with \texttt  {ARIMA} model, green line is the prediction and blue line is showing real data\relax }}{33}{figure.caption.23}}
\newlabel{predictions}{{\M@TitleReference {3.6}{Real data in comparison with \texttt  {ARIMA} model, green line is the prediction and blue line is showing real data\relax }}{33}{Real data in comparison with \texttt {ARIMA} model, green line is the prediction and blue line is showing real data\relax }{figure.caption.23}{}}
\@writefile{toc}{\contentsline {section}{\numberline {3.3}Reccurent Neural Long Short Term Memory Network}{33}{section.3.3}}
\citation{graddes}
\citation{Hochreiter:1997:LSM:1246443.1246450}
\@writefile{lof}{\contentsline {figure}{\numberline {3.7}{\ignorespaces One node of recurrent network\relax }}{34}{figure.caption.24}}
\newlabel{lstm_node}{{\M@TitleReference {3.7}{One node of recurrent network\relax }}{34}{One node of recurrent network\relax }{figure.caption.24}{}}
\@writefile{lof}{\contentsline {figure}{\numberline {3.8}{\ignorespaces Unrolled reccurent network\relax }}{34}{figure.caption.25}}
\newlabel{lstm_unrolled}{{\M@TitleReference {3.8}{Unrolled reccurent network\relax }}{34}{Unrolled reccurent network\relax }{figure.caption.25}{}}
\@writefile{lof}{\contentsline {figure}{\numberline {3.9}{\ignorespaces Activation function in one node\relax }}{35}{figure.caption.26}}
\newlabel{lstm_fnct}{{\M@TitleReference {3.9}{Activation function in one node\relax }}{35}{Activation function in one node\relax }{figure.caption.26}{}}
\@writefile{lof}{\contentsline {figure}{\numberline {3.10}{\ignorespaces Activation function in one node of LSTM\relax }}{35}{figure.caption.27}}
\newlabel{act_lstm}{{\M@TitleReference {3.10}{Activation function in one node of LSTM\relax }}{35}{Activation function in one node of LSTM\relax }{figure.caption.27}{}}
\@writefile{lof}{\contentsline {figure}{\numberline {3.11}{\ignorespaces First step of \texttt  {LSTM}\relax }}{36}{figure.caption.28}}
\newlabel{act_lstm1}{{\M@TitleReference {3.11}{First step of \texttt  {LSTM}\relax }}{36}{First step of \texttt {LSTM}\relax }{figure.caption.28}{}}
\@writefile{lof}{\contentsline {figure}{\numberline {3.12}{\ignorespaces Second step of \texttt  {LSTM}\relax }}{36}{figure.caption.29}}
\newlabel{act_lstm2}{{\M@TitleReference {3.12}{Second step of \texttt  {LSTM}\relax }}{36}{Second step of \texttt {LSTM}\relax }{figure.caption.29}{}}
\@writefile{lof}{\contentsline {figure}{\numberline {3.13}{\ignorespaces Output of $h_t$\relax }}{37}{figure.caption.30}}
\newlabel{act_lstm3}{{\M@TitleReference {3.13}{Output of $h_t$\relax }}{37}{Output of $h_t$\relax }{figure.caption.30}{}}
\@writefile{toc}{\contentsline {subsection}{\numberline {3.3.1}Preprocessing}{37}{subsection.3.3.1}}
\newlabel{selection}{{\M@TitleReference {3.3.1}{Preprocessing}}{37}{Preprocessing}{subsection.3.3.1}{}}
\@writefile{lof}{\contentsline {figure}{\numberline {3.14}{\ignorespaces Reshaped data for \texttt  {LSTM}\relax }}{37}{figure.caption.31}}
\newlabel{windows}{{\M@TitleReference {3.14}{Reshaped data for \texttt  {LSTM}\relax }}{37}{Reshaped data for \texttt {LSTM}\relax }{figure.caption.31}{}}
\citation{lossfnct}
\citation{adam}
\@writefile{toc}{\contentsline {subsection}{\numberline {3.3.2}Creating models}{38}{subsection.3.3.2}}
\newlabel{lstm_models_anchor}{{\M@TitleReference {3.3.2}{Creating models}}{38}{Creating models}{subsection.3.3.2}{}}
\@writefile{toc}{\contentsline {subsubsection}{\numberline {3.3.2.1}Basic LSTM}{38}{subsubsection.3.3.2.1}}
\@writefile{lof}{\contentsline {figure}{\numberline {3.15}{\ignorespaces Basic \texttt  {LSTM} model with on layer\relax }}{38}{figure.caption.32}}
\newlabel{basiclstm}{{\M@TitleReference {3.15}{Basic \texttt  {LSTM} model with on layer\relax }}{38}{Basic \texttt {LSTM} model with on layer\relax }{figure.caption.32}{}}
\@writefile{lof}{\contentsline {figure}{\numberline {3.16}{\ignorespaces Result of basic \texttt  {LSTM} network model\relax }}{39}{figure.caption.33}}
\newlabel{lstmbasicpred}{{\M@TitleReference {3.16}{Result of basic \texttt  {LSTM} network model\relax }}{39}{Result of basic \texttt {LSTM} network model\relax }{figure.caption.33}{}}
\@writefile{toc}{\contentsline {subsubsection}{\numberline {3.3.2.2}Stateful \texttt  {LSTM}}{39}{subsubsection.3.3.2.2}}
\@writefile{lof}{\contentsline {figure}{\numberline {3.17}{\ignorespaces \texttt  {LSTM} model with state input from past \texttt  {LSTMs} \relax }}{39}{figure.caption.34}}
\newlabel{statefulstm}{{\M@TitleReference {3.17}{\texttt  {LSTM} model with state input from past \texttt  {LSTMs} \relax }}{39}{\texttt {LSTM} model with state input from past \texttt {LSTMs} \relax }{figure.caption.34}{}}
\@writefile{lof}{\contentsline {figure}{\numberline {3.18}{\ignorespaces Result of stateful \texttt  {LSTM} network model \relax }}{40}{figure.caption.35}}
\newlabel{lstmstatpred}{{\M@TitleReference {3.18}{Result of stateful \texttt  {LSTM} network model \relax }}{40}{Result of stateful \texttt {LSTM} network model \relax }{figure.caption.35}{}}
\@writefile{toc}{\contentsline {subsubsection}{\numberline {3.3.2.3}Stacked \texttt  {LSTM}}{40}{subsubsection.3.3.2.3}}
\@writefile{lof}{\contentsline {figure}{\numberline {3.19}{\ignorespaces Stacked LSTM in two layers \relax }}{40}{figure.caption.36}}
\newlabel{stackedlstm}{{\M@TitleReference {3.19}{Stacked LSTM in two layers \relax }}{40}{Stacked LSTM in two layers \relax }{figure.caption.36}{}}
\@writefile{lof}{\contentsline {figure}{\numberline {3.20}{\ignorespaces Results of stacked \texttt  {LSTM} in two layers \relax }}{41}{figure.caption.37}}
\newlabel{lstmstackedpred}{{\M@TitleReference {3.20}{Results of stacked \texttt  {LSTM} in two layers \relax }}{41}{Results of stacked \texttt {LSTM} in two layers \relax }{figure.caption.37}{}}
\@writefile{toc}{\contentsline {subsubsection}{\numberline {3.3.2.4}Practical use of \texttt  {LSTM} networks}{41}{subsubsection.3.3.2.4}}
\newlabel{lstmka}{{\M@TitleReference {3.3.2.4}{Practical use of \texttt  {LSTM} networks}}{41}{Practical use of \texttt {LSTM} networks}{subsubsection.3.3.2.4}{}}
\@writefile{lof}{\contentsline {figure}{\numberline {3.21}{\ignorespaces One step prediction with \texttt  {LSTM} \relax }}{42}{figure.caption.38}}
\newlabel{lstmonestep}{{\M@TitleReference {3.21}{One step prediction with \texttt  {LSTM} \relax }}{42}{One step prediction with \texttt {LSTM} \relax }{figure.caption.38}{}}
\@writefile{lof}{\contentsline {figure}{\numberline {3.22}{\ignorespaces One step prediction with \texttt  {LSTM} with further prediction of unknown data\relax }}{43}{figure.caption.39}}
\newlabel{lstmonestepfurther}{{\M@TitleReference {3.22}{One step prediction with \texttt  {LSTM} with further prediction of unknown data\relax }}{43}{One step prediction with \texttt {LSTM} with further prediction of unknown data\relax }{figure.caption.39}{}}
\@writefile{toc}{\contentsline {section}{\numberline {3.4}Conclusion}{43}{section.3.4}}
\@writefile{lof}{\contentsline {figure}{\numberline {3.23}{\ignorespaces Future prediction with well trended data \relax }}{44}{figure.caption.40}}
\newlabel{lstmtrended}{{\M@TitleReference {3.23}{Future prediction with well trended data \relax }}{44}{Future prediction with well trended data \relax }{figure.caption.40}{}}
\@writefile{lot}{\contentsline {table}{\numberline {3.1}{\ignorespaces Mean square error in trained models\relax }}{45}{table.caption.41}}
\newlabel{mse_table}{{\M@TitleReference {3.1}{Mean square error in trained models\relax }}{45}{Mean square error in trained models\relax }{table.caption.41}{}}
\citation{2009root}
\@writefile{lof}{\addvspace {10pt}}
\@writefile{lot}{\addvspace {10pt}}
\@writefile{toc}{\contentsline {chapter}{\chapternumberline {4}Root cause analysis}{47}{chapter.4}}
\newlabel{root}{{\M@TitleReference {4}{Root cause analysis}}{47}{Root cause analysis}{chapter.4}{}}
\@writefile{toc}{\contentsline {section}{\numberline {4.1}Our approach}{47}{section.4.1}}
\citation{ligus2012effective}
\@writefile{toc}{\contentsline {section}{\numberline {4.2}Selecting thresholds}{48}{section.4.2}}
\newlabel{threshold}{{\M@TitleReference {4.2}{Selecting thresholds}}{48}{Selecting thresholds}{section.4.2}{}}
\@writefile{toc}{\contentsline {subsection}{\numberline {4.2.1}Static thresholds}{48}{subsection.4.2.1}}
\@writefile{toc}{\contentsline {subsection}{\numberline {4.2.2}Data driven thresholds}{48}{subsection.4.2.2}}
\citation{ligus2012effective}
\@writefile{lof}{\contentsline {figure}{\numberline {4.1}{\ignorespaces Over sensitive threshold\relax }}{50}{figure.caption.42}}
\newlabel{overSensThr}{{\M@TitleReference {4.1}{Over sensitive threshold\relax }}{50}{Over sensitive threshold\relax }{figure.caption.42}{}}
\@writefile{toc}{\contentsline {section}{\numberline {4.3}Time-based relationships}{50}{section.4.3}}
\citation{unixTimestamp}
\citation{boslaugh2003computers}
\citation{logicalTime}
\@writefile{toc}{\contentsline {subsection}{\numberline {4.3.1}Logical time}{51}{subsection.4.3.1}}
\@writefile{lof}{\contentsline {figure}{\numberline {4.2}{\ignorespaces Diagram of failed items with logical time\relax }}{52}{figure.caption.43}}
\newlabel{logicalRelationships}{{\M@TitleReference {4.2}{Diagram of failed items with logical time\relax }}{52}{Diagram of failed items with logical time\relax }{figure.caption.43}{}}
\@writefile{toc}{\contentsline {subsection}{\numberline {4.3.2}Real-time}{52}{subsection.4.3.2}}
\@writefile{lof}{\contentsline {figure}{\numberline {4.3}{\ignorespaces Diagram of failed items sorted in time\relax }}{53}{figure.caption.44}}
\newlabel{realRelationships}{{\M@TitleReference {4.3}{Diagram of failed items sorted in time\relax }}{53}{Diagram of failed items sorted in time\relax }{figure.caption.44}{}}
\@writefile{lof}{\contentsline {figure}{\numberline {4.4}{\ignorespaces Diagram of failed items sorted in time with stripped bits\relax }}{54}{figure.caption.45}}
\newlabel{realStrippedRelationships}{{\M@TitleReference {4.4}{Diagram of failed items sorted in time with stripped bits\relax }}{54}{Diagram of failed items sorted in time with stripped bits\relax }{figure.caption.45}{}}
\@writefile{toc}{\contentsline {section}{\numberline {4.4}Fail states aggregation}{54}{section.4.4}}
\@writefile{toc}{\contentsline {subsection}{\numberline {4.4.1}Logical time aggregation}{54}{subsection.4.4.1}}
\citation{gaussian}
\@writefile{lof}{\contentsline {figure}{\numberline {4.5}{\ignorespaces Two normal distribution escalating crisis in system\relax }}{55}{figure.caption.46}}
\newlabel{twonormaldists}{{\M@TitleReference {4.5}{Two normal distribution escalating crisis in system\relax }}{55}{Two normal distribution escalating crisis in system\relax }{figure.caption.46}{}}
\@writefile{toc}{\contentsline {subsection}{\numberline {4.4.2}Kernel density}{55}{subsection.4.4.2}}
\newlabel{kernel}{{\M@TitleReference {4.4.2}{Kernel density}}{55}{Kernel density}{subsection.4.4.2}{}}
\citation{AIC}
\citation{engelhardt2009causal}
\@writefile{lof}{\contentsline {figure}{\numberline {4.6}{\ignorespaces Uniform sampled data\relax }}{56}{figure.caption.47}}
\newlabel{sampleddata}{{\M@TitleReference {4.6}{Uniform sampled data\relax }}{56}{Uniform sampled data\relax }{figure.caption.47}{}}
\citation{hardle2012nonparametric}
\@writefile{lof}{\contentsline {figure}{\numberline {4.7}{\ignorespaces Kernel density estimation with bandwidth from Scott's rule of thumb\relax }}{57}{figure.caption.48}}
\newlabel{scotsdens}{{\M@TitleReference {4.7}{Kernel density estimation with bandwidth from Scott's rule of thumb\relax }}{57}{Kernel density estimation with bandwidth from Scott's rule of thumb\relax }{figure.caption.48}{}}
\@writefile{lof}{\contentsline {figure}{\numberline {4.8}{\ignorespaces Kernel density estimation with bandwidth from Silverman's rule of thumb\relax }}{58}{figure.caption.49}}
\newlabel{silvermansdens}{{\M@TitleReference {4.8}{Kernel density estimation with bandwidth from Silverman's rule of thumb\relax }}{58}{Kernel density estimation with bandwidth from Silverman's rule of thumb\relax }{figure.caption.49}{}}
\@writefile{toc}{\contentsline {section}{\numberline {4.5}Correlations}{58}{section.4.5}}
\citation{postcorr}
\@writefile{lof}{\contentsline {figure}{\numberline {4.9}{\ignorespaces Minima division of data into two clusters\relax }}{59}{figure.caption.50}}
\newlabel{minsmaxs}{{\M@TitleReference {4.9}{Minima division of data into two clusters\relax }}{59}{Minima division of data into two clusters\relax }{figure.caption.50}{}}
\@writefile{toc}{\contentsline {subsection}{\numberline {4.5.1}Time of computation}{59}{subsection.4.5.1}}
\@writefile{lol}{\contentsline {lstlisting}{\numberline {4.1}Algorithm to select data over PostgreSQL database and compute \emph  {Pearson correlation coefficient} over them}{59}{lstlisting.4.1}}
\citation{bitmap_indx}
\@writefile{lol}{\contentsline {lstlisting}{\numberline {4.2}Query plan of query}{60}{lstlisting.4.2}}
\citation{correlacePaper}
\citation{vigen2015spurious}
\citation{signl}
\@writefile{toc}{\contentsline {subsection}{\numberline {4.5.2}Trend removal}{61}{subsection.4.5.2}}
\@writefile{lof}{\contentsline {figure}{\numberline {4.10}{\ignorespaces Comparison of trend removal functions\relax }}{62}{figure.caption.51}}
\newlabel{trdremovl}{{\M@TitleReference {4.10}{Comparison of trend removal functions\relax }}{62}{Comparison of trend removal functions\relax }{figure.caption.51}{}}
\newlabel{pthtrend}{{\M@TitleReference {4.3}{Trend removal}}{62}{Algorithm to remove trend in data with polynoma of first order (only $ a \cdot X + b $) fitting}{lstlisting.4.3}{}}
\@writefile{lol}{\contentsline {lstlisting}{\numberline {4.3}Algorithm to remove trend in data with polynoma of first order (only $ a \cdot X + b $) fitting}{62}{lstlisting.4.3}}
\citation{Amdahl}
\@writefile{lot}{\contentsline {table}{\numberline {4.1}{\ignorespaces Speed of different functions of trend removal\relax }}{63}{table.caption.52}}
\newlabel{trndrem_table}{{\M@TitleReference {4.1}{Speed of different functions of trend removal\relax }}{63}{Speed of different functions of trend removal\relax }{table.caption.52}{}}
\@writefile{lot}{\contentsline {table}{\numberline {4.2}{\ignorespaces Standard deviation of data with and without trend\relax }}{63}{table.caption.53}}
\newlabel{trndstd}{{\M@TitleReference {4.2}{Standard deviation of data with and without trend\relax }}{63}{Standard deviation of data with and without trend\relax }{table.caption.53}{}}
\@writefile{lof}{\addvspace {10pt}}
\@writefile{lot}{\addvspace {10pt}}
\@writefile{toc}{\contentsline {chapter}{\chapternumberline {5}Testing of application}{65}{chapter.5}}
\newlabel{tstofapp}{{\M@TitleReference {5}{Testing of application}}{65}{Testing of application}{chapter.5}{}}
\@writefile{toc}{\contentsline {section}{\numberline {5.1}Clustering}{65}{section.5.1}}
\@writefile{toc}{\contentsline {section}{\numberline {5.2}Thresholds}{66}{section.5.2}}
\@writefile{lof}{\contentsline {figure}{\numberline {5.1}{\ignorespaces Two clusters with different density\relax }}{67}{figure.caption.54}}
\newlabel{spare_cluster}{{\M@TitleReference {5.1}{Two clusters with different density\relax }}{67}{Two clusters with different density\relax }{figure.caption.54}{}}
\@writefile{lot}{\contentsline {table}{\numberline {5.1}{\ignorespaces Times of alerts with different spread\relax }}{68}{table.caption.55}}
\newlabel{table_time_cl_err}{{\M@TitleReference {5.1}{Times of alerts with different spread\relax }}{68}{Times of alerts with different spread\relax }{table.caption.55}{}}
\@writefile{lof}{\contentsline {figure}{\numberline {5.3}{\ignorespaces Thresholds comparison\relax }}{68}{figure.caption.57}}
\newlabel{thr_mistake}{{\M@TitleReference {5.3}{Thresholds comparison\relax }}{68}{Thresholds comparison\relax }{figure.caption.57}{}}
\@writefile{lof}{\contentsline {figure}{\numberline {5.2}{\ignorespaces Density function estimation of two clusters with different spread distance of alerts\relax }}{69}{figure.caption.56}}
\newlabel{fig_time_cl_err}{{\M@TitleReference {5.2}{Density function estimation of two clusters with different spread distance of alerts\relax }}{69}{Density function estimation of two clusters with different spread distance of alerts\relax }{figure.caption.56}{}}
\@writefile{lof}{\contentsline {figure}{\numberline {5.4}{\ignorespaces Threshold alerts have gone away with more data\relax }}{69}{figure.caption.58}}
\newlabel{thr_fix}{{\M@TitleReference {5.4}{Threshold alerts have gone away with more data\relax }}{69}{Threshold alerts have gone away with more data\relax }{figure.caption.58}{}}
\@writefile{lof}{\contentsline {figure}{\numberline {5.5}{\ignorespaces Alert on insufficient disk space and also predicted as failing\relax }}{70}{figure.caption.59}}
\newlabel{preds_comp_one}{{\M@TitleReference {5.5}{Alert on insufficient disk space and also predicted as failing\relax }}{70}{Alert on insufficient disk space and also predicted as failing\relax }{figure.caption.59}{}}
\@writefile{toc}{\contentsline {section}{\numberline {5.3}Predictions}{70}{section.5.3}}
\@writefile{lof}{\contentsline {figure}{\numberline {5.6}{\ignorespaces Alert was closed but prediction still thinks the future contains failure state\relax }}{71}{figure.caption.60}}
\newlabel{preds_comp_two}{{\M@TitleReference {5.6}{Alert was closed but prediction still thinks the future contains failure state\relax }}{71}{Alert was closed but prediction still thinks the future contains failure state\relax }{figure.caption.60}{}}
\@writefile{lof}{\contentsline {figure}{\numberline {5.7}{\ignorespaces Prediction created alert and after a while, threshold created alert too\relax }}{71}{figure.caption.61}}
\newlabel{preds_threashold}{{\M@TitleReference {5.7}{Prediction created alert and after a while, threshold created alert too\relax }}{71}{Prediction created alert and after a while, threshold created alert too\relax }{figure.caption.61}{}}
\@writefile{lof}{\addvspace {10pt}}
\@writefile{lot}{\addvspace {10pt}}
\@writefile{toc}{\contentsline {chapter}{Conclusion}{73}{chapter*.62}}
\bibstyle{iso690}
\bibdata{mybibliographyfile}
\bibcite{intlive}{1}
\bibcite{ligus2012effective}{2}
\bibcite{timescaledb}{3}
\bibcite{firstweb}{4}
\bibcite{seose}{5}
\bibcite{gutage}{6}
\bibcite{zabbixsoft}{7}
\bibcite{icinga}{8}
\bibcite{nagios}{9}
\bibcite{olups2016zabbix}{10}
\bibcite{davis2016effective}{11}
\@writefile{toc}{\contentsline {chapter}{Bibliography}{77}{section*.64}}
\bibcite{gibson2014managing}{12}
\bibcite{opsgenie}{13}
\bibcite{pingdom}{14}
\bibcite{statusdroid}{15}
\bibcite{rabbit}{16}
\bibcite{2009root}{17}
\bibcite{vitrage}{18}
\bibcite{dynatrace}{19}
\bibcite{sauce}{20}
\bibcite{bstns}{21}
\bibcite{agrsv}{22}
\bibcite{apscheduler}{23}
\bibcite{ldodp}{24}
\bibcite{box}{25}
\bibcite{dftest}{26}
\bibcite{qplot}{27}
\bibcite{AIC}{28}
\bibcite{MSE}{29}
\bibcite{graddes}{30}
\bibcite{Hochreiter:1997:LSM:1246443.1246450}{31}
\bibcite{lossfnct}{32}
\bibcite{adam}{33}
\bibcite{unixTimestamp}{34}
\bibcite{boslaugh2003computers}{35}
\bibcite{logicalTime}{36}
\bibcite{gaussian}{37}
\bibcite{engelhardt2009causal}{38}
\bibcite{hardle2012nonparametric}{39}
\bibcite{postcorr}{40}
\bibcite{bitmap_indx}{41}
\bibcite{correlacePaper}{42}
\bibcite{vigen2015spurious}{43}
\bibcite{signl}{44}
\bibcite{Amdahl}{45}
\@writefile{lof}{\addvspace {10pt}}
\@writefile{lot}{\addvspace {10pt}}
\@writefile{toc}{\contentsline {appendix}{\chapternumberline {A}Acronyms}{81}{appendix.A}}
\@writefile{lof}{\addvspace {10pt}}
\@writefile{lot}{\addvspace {10pt}}
\@writefile{toc}{\contentsline {appendix}{\chapternumberline {B}Repository description}{83}{appendix.B}}
\@writefile{lof}{\addvspace {10pt}}
\@writefile{lot}{\addvspace {10pt}}
\@writefile{toc}{\contentsline {appendix}{\chapternumberline {C}Folder list on attached USB drive}{89}{appendix.C}}
\newlabel{tab:was:used:in:doc}{{\M@TitleReference {C}{Folder list on attached USB drive}}{89}{Folder list on attached USB drive}{figure.caption.65}{}}
\memsetcounter{lastsheet}{105}
\memsetcounter{lastpage}{89}
