\select@language {czech}
\select@language {UKenglish}
\select@language {UKenglish}
\select@language {UKenglish}
\addvspace {10pt}
\addvspace {10pt}
\contentsline {table}{\numberline {1.1}{\ignorespaces Comparision of different root cause analysis implementation\relax }}{16}{table.caption.13}
\addvspace {10pt}
\addvspace {10pt}
\contentsline {table}{\numberline {3.1}{\ignorespaces Mean square error in trained models\relax }}{45}{table.caption.41}
\addvspace {10pt}
\contentsline {table}{\numberline {4.1}{\ignorespaces Speed of different functions of trend removal\relax }}{63}{table.caption.52}
\contentsline {table}{\numberline {4.2}{\ignorespaces Standard deviation of data with and without trend\relax }}{63}{table.caption.53}
\addvspace {10pt}
\contentsline {table}{\numberline {5.1}{\ignorespaces Times of alerts with different spread\relax }}{68}{table.caption.55}
\addvspace {10pt}
\addvspace {10pt}
\addvspace {10pt}
\addvspace {10pt}
