\beamer@endinputifotherversion {3.36pt}
\select@language {czech}
\beamer@sectionintoc {1}{\IeC {\'U}vod}{3}{0}{1}
\beamer@sectionintoc {2}{P\IeC {\v r}\IeC {\'\i }padov\IeC {\'a} studie}{4}{0}{2}
\beamer@subsectionintoc {2}{1}{Vitrage}{7}{0}{2}
\beamer@subsectionintoc {2}{2}{Dynatrace}{10}{0}{2}
\beamer@sectionintoc {3}{Aplikace}{12}{0}{3}
\beamer@subsectionintoc {3}{1}{P\IeC {\v r}edpov\IeC {\v e}di \IeC {\v c}asov\IeC {\'y}ch \IeC {\v r}ad}{14}{0}{3}
\beamer@subsectionintoc {3}{2}{Hled\IeC {\'a}n\IeC {\'\i } p\IeC {\v r}\IeC {\'\i }\IeC {\v c}in probl\IeC {\'e}m\IeC {\r u}}{20}{0}{3}
\beamer@sectionintoc {4}{Z\IeC {\'a}v\IeC {\v e}r}{24}{0}{4}
