\relax 
\providecommand\hyper@newdestlabel[2]{}
\providecommand\HyperFirstAtBeginDocument{\AtBeginDocument}
\HyperFirstAtBeginDocument{\ifx\hyper@anchor\@undefined
\global\let\oldcontentsline\contentsline
\gdef\contentsline#1#2#3#4{\oldcontentsline{#1}{#2}{#3}}
\global\let\oldnewlabel\newlabel
\gdef\newlabel#1#2{\newlabelxx{#1}#2}
\gdef\newlabelxx#1#2#3#4#5#6{\oldnewlabel{#1}{{#2}{#3}}}
\AtEndDocument{\ifx\hyper@anchor\@undefined
\let\contentsline\oldcontentsline
\let\newlabel\oldnewlabel
\fi}
\fi}
\global\let\hyper@last\relax 
\gdef\HyperFirstAtBeginDocument#1{#1}
\providecommand\HyField@AuxAddToFields[1]{}
\providecommand\HyField@AuxAddToCoFields[2]{}
\catcode `"\active 
\catcode `-\active 
\@writefile{toc}{\beamer@endinputifotherversion {3.36pt}}
\@writefile{nav}{\beamer@endinputifotherversion {3.36pt}}
\select@language{czech}
\@writefile{toc}{\select@language{czech}}
\@writefile{lof}{\select@language{czech}}
\@writefile{lot}{\select@language{czech}}
\@writefile{nav}{\headcommand {\slideentry {0}{0}{1}{1/1}{}{0}}}
\@writefile{nav}{\headcommand {\beamer@framepages {1}{1}}}
\@writefile{nav}{\headcommand {\slideentry {0}{0}{2}{2/2}{}{0}}}
\@writefile{nav}{\headcommand {\beamer@framepages {2}{2}}}
\@writefile{toc}{\beamer@sectionintoc {1}{\IeC {\'U}vod}{3}{0}{1}}
\@writefile{nav}{\headcommand {\sectionentry {1}{\IeC {\'U}vod}{3}{\IeC {\'U}vod}{0}}}
\@writefile{nav}{\headcommand {\beamer@sectionpages {1}{2}}}
\@writefile{nav}{\headcommand {\beamer@subsectionpages {1}{2}}}
\@writefile{nav}{\headcommand {\slideentry {1}{0}{1}{3/3}{}{0}}}
\@writefile{nav}{\headcommand {\beamer@framepages {3}{3}}}
\@writefile{toc}{\beamer@sectionintoc {2}{P\IeC {\v r}\IeC {\'\i }padov\IeC {\'a} studie}{4}{0}{2}}
\@writefile{nav}{\headcommand {\sectionentry {2}{P\IeC {\v r}\IeC {\'\i }padov\IeC {\'a} studie}{4}{P\IeC {\v r}\IeC {\'\i }padov\IeC {\'a} studie}{0}}}
\@writefile{nav}{\headcommand {\beamer@sectionpages {3}{3}}}
\@writefile{nav}{\headcommand {\beamer@subsectionpages {3}{3}}}
\@writefile{nav}{\headcommand {\slideentry {2}{0}{1}{4/4}{}{0}}}
\@writefile{nav}{\headcommand {\beamer@framepages {4}{4}}}
\@writefile{nav}{\headcommand {\slideentry {2}{0}{2}{5/5}{}{0}}}
\@writefile{nav}{\headcommand {\beamer@framepages {5}{5}}}
\@writefile{nav}{\headcommand {\slideentry {2}{0}{3}{6/6}{}{0}}}
\@writefile{nav}{\headcommand {\beamer@framepages {6}{6}}}
\@writefile{toc}{\beamer@subsectionintoc {2}{1}{Vitrage}{7}{0}{2}}
\@writefile{nav}{\headcommand {\beamer@subsectionentry {0}{2}{1}{7}{Vitrage}}\headcommand {\beamer@subsectionpages {4}{6}}}
\@writefile{nav}{\headcommand {\slideentry {2}{1}{1}{7/7}{Vitrage}{0}}}
\@writefile{nav}{\headcommand {\beamer@framepages {7}{7}}}
\@writefile{nav}{\headcommand {\slideentry {2}{1}{2}{8/8}{Vitrage}{0}}}
\@writefile{nav}{\headcommand {\beamer@framepages {8}{8}}}
\@writefile{nav}{\headcommand {\slideentry {2}{1}{3}{9/9}{Vitrage}{0}}}
\@writefile{nav}{\headcommand {\beamer@framepages {9}{9}}}
\@writefile{toc}{\beamer@subsectionintoc {2}{2}{Dynatrace}{10}{0}{2}}
\@writefile{nav}{\headcommand {\beamer@subsectionentry {0}{2}{2}{10}{Dynatrace}}\headcommand {\beamer@subsectionpages {7}{9}}}
\@writefile{nav}{\headcommand {\slideentry {2}{2}{1}{10/10}{Dynatrace}{0}}}
\@writefile{nav}{\headcommand {\beamer@framepages {10}{10}}}
\@writefile{nav}{\headcommand {\slideentry {2}{2}{2}{11/11}{Dynatrace}{0}}}
\@writefile{nav}{\headcommand {\beamer@framepages {11}{11}}}
\@writefile{toc}{\beamer@sectionintoc {3}{Aplikace}{12}{0}{3}}
\@writefile{nav}{\headcommand {\sectionentry {3}{Aplikace}{12}{Aplikace}{0}}}
\@writefile{nav}{\headcommand {\beamer@sectionpages {4}{11}}}
\@writefile{nav}{\headcommand {\beamer@subsectionpages {10}{11}}}
\@writefile{nav}{\headcommand {\slideentry {3}{0}{1}{12/12}{}{0}}}
\@writefile{nav}{\headcommand {\beamer@framepages {12}{12}}}
\@writefile{nav}{\headcommand {\slideentry {3}{0}{2}{13/13}{}{0}}}
\@writefile{nav}{\headcommand {\beamer@framepages {13}{13}}}
\@writefile{toc}{\beamer@subsectionintoc {3}{1}{P\IeC {\v r}edpov\IeC {\v e}di \IeC {\v c}asov\IeC {\'y}ch \IeC {\v r}ad}{14}{0}{3}}
\@writefile{nav}{\headcommand {\beamer@subsectionentry {0}{3}{1}{14}{P\IeC {\v r}edpov\IeC {\v e}di \IeC {\v c}asov\IeC {\'y}ch \IeC {\v r}ad}}\headcommand {\beamer@subsectionpages {12}{13}}}
\@writefile{nav}{\headcommand {\slideentry {3}{1}{1}{14/14}{P\IeC {\v r}edpov\IeC {\v e}di \IeC {\v c}asov\IeC {\'y}ch \IeC {\v r}ad}{0}}}
\@writefile{nav}{\headcommand {\beamer@framepages {14}{14}}}
\@writefile{nav}{\headcommand {\slideentry {3}{1}{2}{15/15}{P\IeC {\v r}edpov\IeC {\v e}di \IeC {\v c}asov\IeC {\'y}ch \IeC {\v r}ad}{0}}}
\@writefile{nav}{\headcommand {\beamer@framepages {15}{15}}}
\@writefile{nav}{\headcommand {\slideentry {3}{1}{3}{16/16}{P\IeC {\v r}edpov\IeC {\v e}di \IeC {\v c}asov\IeC {\'y}ch \IeC {\v r}ad}{0}}}
\@writefile{nav}{\headcommand {\beamer@framepages {16}{16}}}
\@writefile{nav}{\headcommand {\slideentry {3}{1}{4}{17/17}{P\IeC {\v r}edpov\IeC {\v e}di \IeC {\v c}asov\IeC {\'y}ch \IeC {\v r}ad}{0}}}
\@writefile{nav}{\headcommand {\beamer@framepages {17}{17}}}
\@writefile{nav}{\headcommand {\slideentry {3}{1}{5}{18/18}{P\IeC {\v r}edpov\IeC {\v e}di \IeC {\v c}asov\IeC {\'y}ch \IeC {\v r}ad}{0}}}
\@writefile{nav}{\headcommand {\beamer@framepages {18}{18}}}
\@writefile{nav}{\headcommand {\slideentry {3}{1}{6}{19/19}{P\IeC {\v r}edpov\IeC {\v e}di \IeC {\v c}asov\IeC {\'y}ch \IeC {\v r}ad}{0}}}
\@writefile{nav}{\headcommand {\beamer@framepages {19}{19}}}
\@writefile{toc}{\beamer@subsectionintoc {3}{2}{Hled\IeC {\'a}n\IeC {\'\i } p\IeC {\v r}\IeC {\'\i }\IeC {\v c}in probl\IeC {\'e}m\IeC {\r u}}{20}{0}{3}}
\@writefile{nav}{\headcommand {\beamer@subsectionentry {0}{3}{2}{20}{Hled\IeC {\'a}n\IeC {\'\i } p\IeC {\v r}\IeC {\'\i }\IeC {\v c}in probl\IeC {\'e}m\IeC {\r u}}}\headcommand {\beamer@subsectionpages {14}{19}}}
\@writefile{nav}{\headcommand {\slideentry {3}{2}{1}{20/20}{Hled\IeC {\'a}n\IeC {\'\i } p\IeC {\v r}\IeC {\'\i }\IeC {\v c}in probl\IeC {\'e}m\IeC {\r u}}{0}}}
\@writefile{nav}{\headcommand {\beamer@framepages {20}{20}}}
\@writefile{nav}{\headcommand {\slideentry {3}{2}{2}{21/21}{Hled\IeC {\'a}n\IeC {\'\i } p\IeC {\v r}\IeC {\'\i }\IeC {\v c}in probl\IeC {\'e}m\IeC {\r u}}{0}}}
\@writefile{nav}{\headcommand {\beamer@framepages {21}{21}}}
\@writefile{nav}{\headcommand {\slideentry {3}{2}{3}{22/22}{Hled\IeC {\'a}n\IeC {\'\i } p\IeC {\v r}\IeC {\'\i }\IeC {\v c}in probl\IeC {\'e}m\IeC {\r u}}{0}}}
\@writefile{nav}{\headcommand {\beamer@framepages {22}{22}}}
\@writefile{nav}{\headcommand {\slideentry {3}{2}{4}{23/23}{Hled\IeC {\'a}n\IeC {\'\i } p\IeC {\v r}\IeC {\'\i }\IeC {\v c}in probl\IeC {\'e}m\IeC {\r u}}{0}}}
\@writefile{nav}{\headcommand {\beamer@framepages {23}{23}}}
\@writefile{toc}{\beamer@sectionintoc {4}{Z\IeC {\'a}v\IeC {\v e}r}{24}{0}{4}}
\@writefile{nav}{\headcommand {\sectionentry {4}{Z\IeC {\'a}v\IeC {\v e}r}{24}{Z\IeC {\'a}v\IeC {\v e}r}{0}}}
\@writefile{nav}{\headcommand {\beamer@sectionpages {12}{23}}}
\@writefile{nav}{\headcommand {\beamer@subsectionpages {20}{23}}}
\@writefile{nav}{\headcommand {\slideentry {4}{0}{1}{24/24}{}{0}}}
\@writefile{nav}{\headcommand {\beamer@framepages {24}{24}}}
\@writefile{nav}{\headcommand {\slideentry {4}{0}{2}{25/25}{}{0}}}
\@writefile{nav}{\headcommand {\beamer@framepages {25}{25}}}
\@writefile{nav}{\headcommand {\beamer@partpages {1}{25}}}
\@writefile{nav}{\headcommand {\beamer@subsectionpages {24}{25}}}
\@writefile{nav}{\headcommand {\beamer@sectionpages {24}{25}}}
\@writefile{nav}{\headcommand {\beamer@documentpages {25}}}
\@writefile{nav}{\headcommand {\def \inserttotalframenumber {25}}}
