\relax 
\providecommand\zref@newlabel[2]{}
\citation{zabbix}
\select@language{english}
\@writefile{toc}{\select@language{english}}
\@writefile{lof}{\select@language{english}}
\@writefile{lot}{\select@language{english}}
\@writefile{toc}{\contentsline {section}{\numberline {1}Introduction}{1}}
\@writefile{toc}{\contentsline {section}{\numberline {2}Data}{2}}
\@writefile{lof}{\contentsline {figure}{\numberline {1}{\ignorespaces Data collection infrastructure}}{2}}
\newlabel{data_collection}{{1}{2}}
\citation{timescaledb}
\citation{timescaledb}
\citation{ldodp}
\citation{kono}
\@writefile{lof}{\contentsline {figure}{\numberline {2}{\ignorespaces \texttt  {TimescaleDB} benchmark on 16\,GB of input data \cite  {timescaledb}}}{3}}
\newlabel{bench}{{2}{3}}
\citation{box}
\@writefile{lof}{\contentsline {figure}{\numberline {3}{\ignorespaces Incoming network traffic of ethernet device of message queue server in bits per second}}{4}}
\newlabel{ethload}{{3}{4}}
\@writefile{toc}{\contentsline {section}{\numberline {3}ARIMA}{4}}
\@writefile{toc}{\contentsline {subsection}{\numberline {3.1}AR}{4}}
\citation{dftest}
\newlabel{adft}{{3.3}{5}}
\@writefile{toc}{\contentsline {subsection}{\numberline {3.2}MA}{5}}
\@writefile{toc}{\contentsline {subsection}{\numberline {3.3}Differencing}{5}}
\citation{qplot}
\citation{AIC}
\@writefile{toc}{\contentsline {subsection}{\numberline {3.4}Deciding the parameters}{6}}
\@writefile{lof}{\contentsline {figure}{\numberline {4}{\ignorespaces Input data statistics}}{6}}
\newlabel{inp_stats}{{4}{6}}
\citation{MSE}
\@writefile{toc}{\contentsline {subsection}{\numberline {3.5}Testing the model}{7}}
\@writefile{lof}{\contentsline {figure}{\numberline {5}{\ignorespaces Real data in comparison with ARIMA model, green line is the prediction and blue line is showing real data}}{7}}
\newlabel{predictions}{{5}{7}}
\citation{graddes}
\citation{Hochreiter:1997:LSM:1246443.1246450}
\@writefile{toc}{\contentsline {section}{\numberline {4}Reccurent Neural Long Short Term Memory Network}{8}}
\@writefile{lof}{\contentsline {figure}{\numberline {6}{\ignorespaces One node of reccurent network}}{8}}
\newlabel{lstm_node}{{6}{8}}
\@writefile{lof}{\contentsline {figure}{\numberline {7}{\ignorespaces Unrolled reccurent network}}{8}}
\newlabel{lstm_unrolled}{{7}{8}}
\@writefile{lof}{\contentsline {figure}{\numberline {8}{\ignorespaces Activation function in one node}}{9}}
\newlabel{lstm_fnct}{{8}{9}}
\@writefile{lof}{\contentsline {figure}{\numberline {9}{\ignorespaces Activation function in one node of LSTM}}{9}}
\newlabel{act_lstm}{{9}{9}}
\@writefile{lof}{\contentsline {figure}{\numberline {10}{\ignorespaces First step of LSTM}}{10}}
\newlabel{act_lstm1}{{10}{10}}
\@writefile{lof}{\contentsline {figure}{\numberline {11}{\ignorespaces Second step of LSTM}}{10}}
\newlabel{act_lstm2}{{11}{10}}
\@writefile{lof}{\contentsline {figure}{\numberline {12}{\ignorespaces Output of $h_t$}}{11}}
\newlabel{act_lstm3}{{12}{11}}
\@writefile{toc}{\contentsline {subsection}{\numberline {4.1}Preprocessing}{11}}
\@writefile{lof}{\contentsline {figure}{\numberline {13}{\ignorespaces Reshaped data for LSTM}}{11}}
\newlabel{windows}{{13}{11}}
\citation{lossfnct}
\citation{adam}
\@writefile{toc}{\contentsline {subsection}{\numberline {4.2}Creating models}{12}}
\@writefile{toc}{\contentsline {subsubsection}{\numberline {4.2.1}Basic LSTM}{12}}
\@writefile{lof}{\contentsline {figure}{\numberline {14}{\ignorespaces Basic LSTM model with on layer}}{12}}
\newlabel{basiclstm}{{14}{12}}
\@writefile{lof}{\contentsline {figure}{\numberline {15}{\ignorespaces Result of basic LSTM network model}}{12}}
\newlabel{lstmbasicpred}{{15}{12}}
\@writefile{toc}{\contentsline {subsubsection}{\numberline {4.2.2}Stateful LSTM}{13}}
\@writefile{lof}{\contentsline {figure}{\numberline {16}{\ignorespaces LSTM model with state input from past LSTMs}}{13}}
\newlabel{statefulstm}{{16}{13}}
\@writefile{lof}{\contentsline {figure}{\numberline {17}{\ignorespaces Result of stateful LSTM network model}}{13}}
\newlabel{lstmstatpred}{{17}{13}}
\@writefile{toc}{\contentsline {subsubsection}{\numberline {4.2.3}Stacked LSTM}{14}}
\@writefile{lof}{\contentsline {figure}{\numberline {18}{\ignorespaces Stacked LSTM in two layers}}{14}}
\newlabel{stackedlstm}{{18}{14}}
\@writefile{lof}{\contentsline {figure}{\numberline {19}{\ignorespaces Results of stacked LSTM in two layers}}{14}}
\newlabel{lstmstackedpred}{{19}{14}}
\@writefile{toc}{\contentsline {section}{\numberline {5}Conclusion}{14}}
\bibstyle{iso690}
\bibdata{mybibliographyfile}
\bibcite{zabbix}{1}
\@writefile{lot}{\contentsline {table}{\numberline {1}{\ignorespaces Mean square error in trained models}}{15}}
\newlabel{mse_table}{{1}{15}}
\bibcite{timescaledb}{2}
\bibcite{ldodp}{3}
\bibcite{kono}{4}
\bibcite{box}{5}
\bibcite{dftest}{6}
\bibcite{qplot}{7}
\bibcite{AIC}{8}
\bibcite{MSE}{9}
\bibcite{graddes}{10}
\bibcite{Hochreiter:1997:LSM:1246443.1246450}{11}
\bibcite{lossfnct}{12}
\bibcite{adam}{13}
